What is the gibble • gibble
…
The gibble() function tells us about this structure

gibble(minimal_mesh)
#> # A tibble: 3 x 5
#>    nrow  ncol type         subobject object
#>   <int> <int> <chr>            <int>  <int>
#> 1     8     2 MULTIPOLYGON         1      1
#> 2     6     2 MULTIPOLYGON         1      1
#> 3     5     2 MULTIPOLYGON         1      2

and works on much more complicated data sets.

gibble(mpoly)
#> # A tibble: 61 x 5
#>     nrow  ncol type         subobject object
#>    <int> <int> <chr>            <int>  <int>
#>  1     6     2 MULTIPOLYGON         1      1
#>  2     4     2 MULTIPOLYGON         1      1
#>  3     5     2 MULTIPOLYGON         2      1
#>  4     5     2 MULTIPOLYGON         2      1
#>  5     4     2 MULTIPOLYGON         3      1
#>  6  4434     2 MULTIPOLYGON         1      2
#>  7   158     2 MULTIPOLYGON         1      2
#>  8   707     2 MULTIPOLYGON         1      2
#>  9   968     2 MULTIPOLYGON         1      2
#> 10  1405     2 MULTIPOLYGON         1      2
#> # … with 51 more rows
…
